…
``` r
pap_dat <- pap_dat %>% 
  mutate(age_cat = case_when(age_p >= 25 & age_p < 40 ~ "25–39",
                              age_p >= 40 & age_p < 50 ~ "40–49",
                              age_p >= 50 & age_p < 65 ~ "50–64",
                              age_p >= 65 ~ "65+"))

pap_dat %>% 
  count(educ1)
```

    ## # A tibble: 24 x 2
    ##    educ1     n
    ##    <dbl> <int>
    ##  1     0   134
    ##  2     1    27
    ##  3     2    76
    ##  4     3   111
    ##  5     4   110
    ##  6     5   133
    ##  7     6   493
    ##  8     7   203
    ##  9     8   527
    ## 10     9   624
    ## # … with 14 more rows
…
